<?xml version="1.0"?>

<robot name="final_robot" xmlns:xacro="http://www.ros.org/wiki/xacro">

	<!-- <gazebo>
		<plugin name="object_controller" filename="libgazebo_ros_planar_move.so">
			<commandTopic>
				cmd_vel
			</commandTopic>
			<odometryTopic>
				odom
			</odometryTopic>
			<odometryFrame>
				odom
			</odometryFrame>
			<odometryRate>
				20.0
			</odometryRate>
			<robotBaseFrame>
				base_footprint
			</robotBaseFrame>
		</plugin>
	</gazebo> -->

	<!-- Import summit XL wheels -->
	<xacro:include filename="$(find mobile_base)/robot_description/urdf/wheels/omni_wheel.urdf.xacro" />
	<!-- <xacro:property name="wheel_radius_2" value="${wheel_radius}" /> -->
	<xacro:include filename="$(find mobile_base)/robot_description/urdf/flatbed/flatbed.urdf.xacro" />

	<xacro:include filename="$(find robotic_arm)/robot_description/urdf/robotic_arm.urdf.xacro" />

	<!-- Wheel parameters -->
	<xacro:property name="wheel_offset_x" value="0.2225" />    <!-- x,y,z in translation from base_link to the center of the wheel -->
	<xacro:property name="wheel_offset_y" value="0.4" />
	<xacro:property name="wheel_offset_z" value="0.0" />

	<xacro:macro name="robot">
		<xacro:summit_base wheel_radius="${wheel_radius}"/>

		<xacro:omni_wheel prefix="summit_front_right" parent="summit_base_link" reflect="false">
			<origin xyz="${wheel_offset_x} -${wheel_offset_y} ${wheel_offset_z}" rpy="0 0 0"/>
		</xacro:omni_wheel>

		<xacro:omni_wheel prefix="summit_front_left" parent="summit_base_link" reflect="true">
			<origin xyz="${wheel_offset_x} ${wheel_offset_y} ${wheel_offset_z}" rpy="0 0 0"/>
		</xacro:omni_wheel>

		<xacro:omni_wheel prefix="summit_back_left" parent="summit_base_link" reflect="true">
			<origin xyz="-${wheel_offset_x} ${wheel_offset_y} ${wheel_offset_z}" rpy="0 0 0"/>
		</xacro:omni_wheel>

		<xacro:omni_wheel prefix="summit_back_right" parent="summit_base_link" reflect="false">
			<origin xyz="-${wheel_offset_x} -${wheel_offset_y} ${wheel_offset_z}" rpy="0 0 0"/>
		</xacro:omni_wheel>

		<xacro:robotic_arm_robot parent="summit_base_link">
			<origin xyz="0 0 0.25" rpy="0 0 0"/>
		</xacro:robotic_arm_robot>

   </xacro:macro>

   <xacro:robot/>

</robot>

