the learning rate: 0.001
number of episode: 30000         
lenght of the game: 100            
mini batch size: 64             
update target network rate: 10000
epsilon start: 1.0           
espisolon stop: 0.01            
the decay of the epsilon: 0.00005           
gamma: 0.95         
pretraing espidoes: 100000   
size of the memory: 100000      
