the learning rate: 0.01
number of episode: 20000         
lenght of the game: 100            
mini batch size: 64             
epsilon start: 1.0           
espisolon stop: 0.01            
the decay of the epsilon: 0.001           
gamma: 0.99         
pretraing espidoes: 64   
size of the memory: 100000      
